…
flash_df
#> # A tibble: 22 x 5
#>    screen_name text                              urls_url         media_url               flashcard_name      
#>    <chr>       <chr>                             <chr>            <chr>                   <chr>               
#>  1 chrisalbon  Variance https://t.co/eZ2bbpDzwV… machinelearning… http://pbs.twimg.com/m… variance            
#>  2 chrisalbon  Derivative https://t.co/eZ2bbpDz… machinelearning… http://pbs.twimg.com/m… derivative          
#>  3 chrisalbon  Why Is It Called A Cost Function… machinelearning… http://pbs.twimg.com/m… why-is-it-called-a-…
#>  4 chrisalbon  Meanshift Clustering By Analogy … machinelearning… http://pbs.twimg.com/m… meanshift-clusterin…
#>  5 chrisalbon  Interquartile Range https://t.co… machinelearning… http://pbs.twimg.com/m… interquartile-range 
#>  6 chrisalbon  Training And Test Error https://… machinelearning… http://pbs.twimg.com/m… training-and-test-e…
#>  7 chrisalbon  Saddle Point https://t.co/eZ2bbp… machinelearning… http://pbs.twimg.com/m… saddle-point        
#>  8 chrisalbon  Frobenius Norm https://t.co/eZ2b… machinelearning… http://pbs.twimg.com/m… frobenius-norm      
#>  9 chrisalbon  Hidden Layer https://t.co/eZ2bbp… machinelearning… http://pbs.twimg.com/m… hidden-layer        
#> 10 chrisalbon  Matthews Correlation Coefficient… machinelearning… http://pbs.twimg.com/m… matthews-correlatio…
#> # … with 12 more rows
```
…
